%YAML 1.1
%TAG !u! tag:unity3d.com,2011:
--- !u!74 &7400000
AnimationClip:
  m_ObjectHideFlags: 0
  m_CorrespondingSourceObject: {fileID: 0}
  m_PrefabInstance: {fileID: 0}
  m_PrefabAsset: {fileID: 0}
  m_Name: P2_Walk_N_Up
  serializedVersion: 6
  m_Legacy: 0
  m_Compressed: 0
  m_UseHighQualityCurve: 1
  m_RotationCurves: []
  m_CompressedRotationCurves: []
  m_EulerCurves: []
  m_PositionCurves: []
  m_ScaleCurves: []
  m_FloatCurves: []
  m_PPtrCurves:
  - curve:
    - time: 0
      value: {fileID: 21300000, guid: eb2e37b99f1cc0a4999b02fbc65891b9, type: 3}
    - time: 0.16666667
      value: {fileID: 21300000, guid: 45578db16e1d1fa4288038d95d512e3f, type: 3}
    - time: 0.33333334
      value: {fileID: 21300000, guid: 2a78262d266ddf24883534ce49991b51, type: 3}
    - time: 0.5
      value: {fileID: 21300000, guid: b1991d432a4b16e4793bbe6a3c655721, type: 3}
    - time: 0.6666667
      value: {fileID: 21300000, guid: b9e9b57f6d28ca546a7d46a4b29e9eff, type: 3}
    - time: 0.8333333
      value: {fileID: 21300000, guid: be9ae859dc7e3d54b906d1c755a21bcf, type: 3}
    - time: 1
      value: {fileID: 21300000, guid: 00d255996d55d224aa4b3c3b34a8c6d2, type: 3}
    attribute: m_Sprite
    path: Body
    classID: 212
    script: {fileID: 0}
  m_SampleRate: 60
  m_WrapMode: 0
  m_Bounds:
    m_Center: {x: 0, y: 0, z: 0}
    m_Extent: {x: 0, y: 0, z: 0}
  m_ClipBindingConstant:
    genericBindings:
    - serializedVersion: 2
      path: 2073732236
      attribute: 0
      script: {fileID: 0}
      typeID: 212
      customType: 23
      isPPtrCurve: 1
    pptrCurveMapping:
    - {fileID: 21300000, guid: eb2e37b99f1cc0a4999b02fbc65891b9, type: 3}
    - {fileID: 21300000, guid: 45578db16e1d1fa4288038d95d512e3f, type: 3}
    - {fileID: 21300000, guid: 2a78262d266ddf24883534ce49991b51, type: 3}
    - {fileID: 21300000, guid: b1991d432a4b16e4793bbe6a3c655721, type: 3}
    - {fileID: 21300000, guid: b9e9b57f6d28ca546a7d46a4b29e9eff, type: 3}
    - {fileID: 21300000, guid: be9ae859dc7e3d54b906d1c755a21bcf, type: 3}
    - {fileID: 21300000, guid: 00d255996d55d224aa4b3c3b34a8c6d2, type: 3}
  m_AnimationClipSettings:
    serializedVersion: 2
    m_AdditiveReferencePoseClip: {fileID: 0}
    m_AdditiveReferencePoseTime: 0
    m_StartTime: 0
    m_StopTime: 1.0166667
    m_OrientationOffsetY: 0
    m_Level: 0
    m_CycleOffset: 0
    m_HasAdditiveReferencePose: 0
    m_LoopTime: 1
    m_LoopBlend: 0
    m_LoopBlendOrientation: 0
    m_LoopBlendPositionY: 0
    m_LoopBlendPositionXZ: 0
    m_KeepOriginalOrientation: 0
    m_KeepOriginalPositionY: 1
    m_KeepOriginalPositionXZ: 0
    m_HeightFromFeet: 0
    m_Mirror: 0
  m_EditorCurves: []
  m_EulerEditorCurves: []
  m_HasGenericRootTransform: 0
  m_HasMotionFloatCurves: 0
  m_Events: []
